dual_elevator.vcd
$date
	Fri Nov 07 09:36:52 2025
$end
$version
	Icarus Verilog
$end
$timescale
	1ps
$end
$scope module tb_dual_elevator $end
$var wire 3 ! e0_floor [2:0] $end
$var wire 3 " e1_floor [2:0] $end
$var wire 6 # pending0 [5:0] $end
$var wire 6 $ pending1 [5:0] $end
$var reg 1 % clk $end
$var reg 6 & requests [5:0] $end
$var reg 1 ' rst $end
$scope function floors_to_str $end
$var reg 1 ( first $end
$var reg 256 ) floors_to_str [255:0] $end
$var integer 32 * i [31:0] $end
$var reg 256 + s [255:0] $end
$var reg 32 , tmp [31:0] $end
$var reg 6 - vec [5:0] $end
$upscope $end
$scope module dut $end
$var wire 6 . assign_e0 [5:0] $end
$var wire 6 / assign_e1 [5:0] $end
$var wire 1 0 clk $end
$var wire 3 1 e0_floor [2:0] $end
$var wire 3 2 e1_floor [2:0] $end
$var wire 6 3 pending0 [5:0] $end
$var wire 6 4 pending1 [5:0] $end
$var wire 6 5 requests [5:0] $end
$var wire 1 6 rst $end
$scope module arb $end
$var wire 1 0 clk $end
$var wire 3 7 e0_floor [2:0] $end
$var wire 3 8 e1_floor [2:0] $end
$var wire 6 9 pending0 [5:0] $end
$var wire 6 : pending1 [5:0] $end
$var wire 6 ; requests [5:0] $end
$var wire 1 6 rst $end
$var reg 6 < assign_e0 [5:0] $end
$var reg 6 = assign_e1 [5:0] $end
$var reg 8 > dist0 [7:0] $end
$var reg 8 ? dist1 [7:0] $end
$var integer 32 @ i [31:0] $end
$upscope $end
$scope module e0 $end
$var wire 6 A assign_in [5:0] $end
$var wire 1 0 clk $end
$var wire 1 6 rst $end
$var reg 3 B cur_floor [2:0] $end
$var reg 1 C door_open $end
$var integer 32 D i [31:0] $end
$var reg 1 E moving $end
$var reg 6 F pending [5:0] $end
$var reg 2 G state [1:0] $end
$var reg 3 H target [2:0] $end
$var reg 1 I target_valid $end
$upscope $end
$scope module e1 $end
$var wire 6 J assign_in [5:0] $end
$var wire 1 0 clk $end
$var wire 1 6 rst $end
$var reg 3 K cur_floor [2:0] $end
$var reg 1 L door_open $end
$var integer 32 M i [31:0] $end
$var reg 1 N moving $end
$var reg 6 O pending [5:0] $end
$var reg 2 P state [1:0] $end
$var reg 3 Q target [2:0] $end
$var reg 1 R target_valid $end
$upscope $end
$upscope $end
$upscope $end
$enddefinitions $end
#0
$dumpvars
xR
bx Q
b0 P
b0 O
0N
bx M
0L
b0 K
b0 J
xI
bx H
b0 G
b0 F
0E
bx D
0C
b0 B
b0 A
bx @
bx ?
bx >
b0 =
b0 <
b0 ;
b0 :
b0 9
b0 8
b0 7
16
b0 5
b0 4
b0 3
b0 2
b0 1
00
b0 /
b0 .
bx -
bx ,
bx +
bx *
bx )
x(
1'
b0 &
0%
b0 $
b0 #
b0 "
b0 !
$end
#5000
1%
10
#10000
0%
00
#15000
1%
10
#20000
0%
00
0'
06
#21000
b111101101111101 )
b110 *
1(
b111101101111101 +
b0 -
#25000
b110 M
b0 Q
0R
b110 D
b0 H
0I
b110 @
1%
10
#30000
0%
00
#35000
b110 @
b110 D
b110 M
1%
10
#40000
0%
00
#45000
b110 M
b110 D
b110 @
1%
10
#50000
0%
00
b100 &
b100 5
b100 ;
#55000
b100 <
b100 .
b100 A
b10 ?
b10 >
b110 @
b110 D
b110 M
1%
10
#60000
0%
00
b0 &
b0 5
b0 ;
#65000
b100 F
b100 #
b100 3
b100 9
b0 <
b0 .
b0 A
b110 M
b110 D
b110 @
1%
10
#70000
0%
00
#75000
b1 G
b110 @
1I
b10 H
b111 D
b110 M
1%
10
#80000
0%
00
#85000
b1 B
b1 !
b1 1
b1 7
1E
b110 M
b110 @
1%
10
#90000
0%
00
#95000
b10 B
b10 !
b10 1
b10 7
b110 @
b110 M
1%
10
#100000
0%
00
#105000
0E
b10 G
b110 M
b110 @
1%
10
#110000
0%
00
#115000
b0 G
b0 F
b0 #
b0 3
b0 9
1C
b110 @
b110 M
1%
10
#120000
0%
00
#125000
0C
b110 M
b110 D
b0 H
0I
b110 @
1%
10
#130000
0%
00
#135000
b110 @
b110 D
b110 M
1%
10
#140000
0%
00
#145000
b110 M
b110 D
b110 @
1%
10
#150000
0%
00
b10000 &
b10000 5
b10000 ;
#155000
b10000 <
b10000 .
b10000 A
b100 ?
b110 @
b110 D
b110 M
1%
10
#160000
0%
00
b0 &
b0 5
b0 ;
#165000
b10000 F
b10000 #
b10000 3
b10000 9
b0 <
b0 .
b0 A
b110 M
b110 D
b110 @
1%
10
#170000
0%
00
#175000
b1 G
b110 @
1I
b100 H
b111 D
b110 M
1%
10
#180000
0%
00
#185000
b11 B
b11 !
b11 1
b11 7
1E
b110 M
b110 @
1%
10
#190000
0%
00
#195000
b100 B
b100 !
b100 1
b100 7
b110 @
b110 M
1%
10
#200000
0%
00
#205000
0E
b10 G
b110 M
b110 @
1%
10
#210000
0%
00
#215000
b0 G
b0 F
b0 #
b0 3
b0 9
1C
b110 @
b110 M
1%
10
#220000
0%
00
#225000
0C
b110 M
b110 D
b0 H
0I
b110 @
1%
10
#230000
0%
00
#235000
b110 @
b110 D
b110 M
1%
10
#240000
0%
00
#245000
b110 M
b110 D
b110 @
1%
10
#250000
0%
00
#255000
b110 @
b110 D
b110 M
1%
10
#260000
0%
00
#265000
b110 M
b110 D
b110 @
1%
10
#270000
0%
00
#275000
b110 @
b110 D
b110 M
1%
10
#280000
0%
00
#285000
b110 M
b110 D
b110 @
1%
10
#290000
0%
00
#295000
b110 @
b110 D
b110 M
1%
10
#300000
0%
00
b100 &
b100 5
b100 ;
#305000
b100 <
b100 .
b100 A
b110 M
b110 D
b10 ?
b110 @
1%
10
#310000
0%
00
b0 &
b0 5
b0 ;
#315000
b0 <
b0 .
b0 A
b100 F
b100 #
b100 3
b100 9
b110 @
b110 D
b110 M
1%
10
#320000
0%
00
#325000
b1 G
b110 M
1I
b10 H
b111 D
b110 @
1%
10
#330000
0%
00
#335000
b11 B
b11 !
b11 1
b11 7
1E
b110 @
b110 M
1%
10
#340000
0%
00
#345000
b10 B
b10 !
b10 1
b10 7
b110 M
b110 @
1%
10
#350000
0%
00
#355000
0E
b10 G
b110 @
b110 M
1%
10
#360000
0%
00
#365000
b0 G
b0 F
b0 #
b0 3
b0 9
1C
b110 M
b110 @
1%
10
#370000
0%
00
#375000
0C
b110 @
b110 D
b0 H
0I
b110 M
1%
10
#380000
0%
00
#385000
b110 M
b110 D
b110 @
1%
10
#390000
0%
00
#395000
b110 @
b110 D
b110 M
1%
10
#400000
0%
00
#405000
b110 M
b110 D
b110 @
1%
10
#410000
0%
00
#415000
b110 @
b110 D
b110 M
1%
10
#420000
0%
00
#425000
b110 M
b110 D
b110 @
1%
10
#430000
0%
00
#435000
b110 @
b110 D
b110 M
1%
10
#440000
0%
00
#445000
b110 M
b110 D
b110 @
1%
10
#450000
0%
00
#455000
b110 @
b110 D
b110 M
1%
10
#460000
0%
00
#465000
b110 M
b110 D
b110 @
1%
10
#470000
0%
00
#475000
b110 @
b110 D
b110 M
1%
10
#480000
0%
00
#485000
b110 M
b110 D
b110 @
1%
10
#490000
0%
00
#495000
b110 @
b110 D
b110 M
1%
10
#500000
0%
00
#505000
b110 M
b110 D
b110 @
1%
10
#510000
0%
00
#515000
b110 @
b110 D
b110 M
1%
10
#520000
0%
00
#525000
b110 M
b110 D
b110 @
1%
10
#530000
0%
00
#535000
b110 @
b110 D
b110 M
1%
10
#540000
0%
00
#545000
b110 M
b110 D
b110 @
1%
10
#550000
0%
00
#555000
b110 @
b110 D
b110 M
1%
10
#560000
0%
00
#565000
b110 M
b110 D
b110 @
1%
10
#570000
0%
00
#575000
b110 @
b110 D
b110 M
1%
10
#580000
0%
00
#585000
b110 M
b110 D
b110 @
1%
10
#590000
0%
00
#595000
b110 @
b110 D
b110 M
1%
10
#600000
0%
00
#605000
b110 M
b110 D
b110 @
1%
10
#610000
0%
00
#615000
b110 @
b110 D
b110 M
1%
10
#620000
0%
00
#625000
b110 M
b110 D
b110 @
1%
10
#630000
0%
00
#635000
b110 @
b110 D
b110 M
1%
10
#640000
0%
00
#645000
b110 M
b110 D
b110 @
1%
10
#650000
0%
00
#655000
b110 @
b110 D
b110 M
1%
10
#660000
0%
00
#665000
b110 M
b110 D
b110 @
1%
10
#670000
0%
00
#675000
b110 @
b110 D
b110 M
1%
10
#680000
0%
00
#685000
b110 M
b110 D
b110 @
1%
10
#690000
0%
00
#695000
b110 @
b110 D
b110 M
1%
10
#700000
0%
00
#705000
b110 M
b110 D
b110 @
1%
10
#710000
0%
00
#715000
b110 @
b110 D
b110 M
1%
10
#720000
0%
00
#725000
b110 M
b110 D
b110 @
1%
10
#730000
0%
00
#735000
b110 @
b110 D
b110 M
1%
10
#740000
0%
00
#745000
b110 M
b110 D
b110 @
1%
10
#750000
0%
00
#755000
b110 @
b110 D
b110 M
1%
10
#760000
0%
00
#765000
b110 M
b110 D
b110 @
1%
10
#770000
0%
00
#775000
b110 @
b110 D
b110 M
1%
10
#780000
0%
00
#785000
b110 M
b110 D
b110 @
1%
10
#790000
0%
00
#795000
b110 @
b110 D
b110 M
1%
10
#800000
0%
00
#805000
b110 M
b110 D
b110 @
1%
10
#810000
0%
00
#815000
b110 @
b110 D
b110 M
1%
10
#820000
0%
00
#825000
b110 M
b110 D
b110 @
1%
10
#830000
0%
00
#835000
b110 @
b110 D
b110 M
1%
10
#840000
0%
00
#845000
b110 M
b110 D
b110 @
1%
10
#850000
0%
00
#855000
b110 @
b110 D
b110 M
1%
10
#860000
0%
00
#865000
b110 M
b110 D
b110 @
1%
10
#870000
0%
00
#875000
b110 @
b110 D
b110 M
1%
10
#880000
0%
00
#885000
b110 M
b110 D
b110 @
1%
10
#890000
0%
00
#895000
b110 @
b110 D
b110 M
1%
10
#900000
0%
00
#905000
b110 M
b110 D
b110 @
1%
10
#910000
0%
00
#915000
b110 @
b110 D
b110 M
1%
10
#920000
0%
00
#925000
b110 M
b110 D
b110 @
1%
10
#930000
0%
00
#935000
b110 @
b110 D
b110 M
1%
10
#940000
0%
00
#945000
b110 M
b110 D
b110 @
1%
10
#950000
0%
00
#955000
b110 @
b110 D
b110 M
1%
10
#960000
0%
00
#965000
b110 M
b110 D
b110 @
1%
10
#970000
0%
00
#975000
b110 @
b110 D
b110 M
1%
10
#980000
0%
00
#985000
b110 M
b110 D
b110 @
1%
10
#990000
0%
00
#995000
b110 @
b110 D
b110 M
1%
10
#1000000
0%
00
#1005000
b110 M
b110 D
b110 @
1%
10
#1010000
0%
00
#1015000
b110 @
b110 D
b110 M
1%
10
#1020000
0%
00
#1025000
b110 M
b110 D
b110 @
1%
10
#1030000
0%
00
#1035000
b110 @
b110 D
b110 M
1%
10
#1040000
0%
00
#1045000
b110 M
b110 D
b110 @
1%
10
#1050000
0%
00
#1055000
b110 @
b110 D
b110 M
1%
10
#1060000
0%
00
#1065000
b110 M
b110 D
b110 @
1%
10
#1070000
0%
00
#1075000
b110 @
b110 D
b110 M
1%
10
#1080000
0%
00
#1085000
b110 M
b110 D
b110 @
1%
10
#1090000
0%
00
#1095000
b110 @
b110 D
b110 M
1%
10
#1100000
0%
00
#1105000
b110 M
b110 D
b110 @
1%
10
#1110000
0%
00
#1115000
b110 @
b110 D
b110 M
1%
10
#1120000
0%
00
#1125000
b110 M
b110 D
b110 @
1%
10
#1130000
0%
00
#1135000
b110 @
b110 D
b110 M
1%
10
#1140000
0%
00
#1145000
b110 M
b110 D
b110 @
1%
10
#1150000
0%
00
#1155000
b110 @
b110 D
b110 M
1%
10
#1160000
0%
00
#1165000
b110 M
b110 D
b110 @
1%
10
#1170000
0%
00
#1175000
b110 @
b110 D
b110 M
1%
10
#1180000
0%
00
#1185000
b110 M
b110 D
b110 @
1%
10
#1190000
0%
00
#1195000
b110 @
b110 D
b110 M
1%
10
#1200000
0%
00
#1205000
b110 M
b110 D
b110 @
1%
10
#1210000
0%
00
#1215000
b110 @
b110 D
b110 M
1%
10
#1220000
0%
00
#1225000
b110 M
b110 D
b110 @
1%
10
#1230000
0%
00
#1235000
b110 @
b110 D
b110 M
1%
10
#1240000
0%
00
#1245000
b110 M
b110 D
b110 @
1%
10
#1250000
0%
00
#1255000
b110 @
b110 D
b110 M
1%
10
#1260000
0%
00
#1265000
b110 M
b110 D
b110 @
1%
10
#1270000
0%
00
#1275000
b110 @
b110 D
b110 M
1%
10
#1280000
0%
00
#1285000
b110 M
b110 D
b110 @
1%
10
#1290000
0%
00
#1295000
b110 @
b110 D
b110 M
1%
10
#1300000
0%
00
#1305000
b110 M
b110 D
b110 @
1%
10
#1310000
0%
00
#1315000
b110 @
b110 D
b110 M
1%
10
#1320000
0%
00
#1325000
b110 M
b110 D
b110 @
1%
10
#1330000
0%
00
#1335000
b110 @
b110 D
b110 M
1%
10
#1340000
0%
00
#1345000
b110 M
b110 D
b110 @
1%
10
#1350000
0%
00
#1355000
b110 @
b110 D
b110 M
1%
10
#1360000
0%
00
#1365000
b110 M
b110 D
b110 @
1%
10
#1370000
0%
00
#1375000
b110 @
b110 D
b110 M
1%
10
#1380000
0%
00
#1385000
b110 M
b110 D
b110 @
1%
10
#1390000
0%
00
#1395000
b110 @
b110 D
b110 M
1%
10
#1400000
0%
00
#1405000
b110 M
b110 D
b110 @
1%
10
#1410000
0%
00
#1415000
b110 @
b110 D
b110 M
1%
10
#1420000
0%
00
#1425000
b110 M
b110 D
b110 @
1%
10
#1430000
0%
00
#1435000
b110 @
b110 D
b110 M
1%
10
#1440000
0%
00
#1445000
b110 M
b110 D
b110 @
1%
10
#1450000
0%
00
#1455000
b110 @
b110 D
b110 M
1%
10
#1460000
0%
00
#1465000
b110 M
b110 D
b110 @
1%
10
#1470000
0%
00
#1475000
b110 @
b110 D
b110 M
1%
10
#1480000
0%
00
#1485000
b110 M
b110 D
b110 @
1%
10
#1490000
0%
00
#1495000
b110 @
b110 D
b110 M
1%
10
#1500000
0%
00
#1505000
b110 M
b110 D
b110 @
1%
10
#1510000
0%
00
#1515000
b110 @
b110 D
b110 M
1%
10
#1520000
0%
00
#1525000
b110 M
b110 D
b110 @
1%
10
#1530000
0%
00
#1535000
b110 @
b110 D
b110 M
1%
10
#1540000
0%
00
#1545000
b110 M
b110 D
b110 @
1%
10
#1550000
0%
00
#1555000
b110 @
b110 D
b110 M
1%
10
#1560000
0%
00
#1565000
b110 M
b110 D
b110 @
1%
10
#1570000
0%
00
#1575000
b110 @
b110 D
b110 M
1%
10
#1580000
0%
00
#1585000
b110 M
b110 D
b110 @
1%
10
#1590000
0%
00
#1595000
b110 @
b110 D
b110 M
1%
10
#1600000
0%
00
#1605000
b110 M
b110 D
b110 @
1%
10
#1610000
0%
00
#1615000
b110 @
b110 D
b110 M
1%
10
#1620000
0%
00
#1625000
b110 M
b110 D
b110 @
1%
10
#1630000
0%
00
#1635000
b110 @
b110 D
b110 M
1%
10
#1640000
0%
00
#1645000
b110 M
b110 D
b110 @
1%
10
#1650000
0%
00
#1655000
b110 @
b110 D
b110 M
1%
10
#1660000
0%
00
#1665000
b110 M
b110 D
b110 @
1%
10
#1670000
0%
00
#1675000
b110 @
b110 D
b110 M
1%
10
#1680000
0%
00
#1685000
b110 M
b110 D
b110 @
1%
10
#1690000
0%
00
#1695000
b110 @
b110 D
b110 M
1%
10
#1700000
0%
00
#1705000
b110 M
b110 D
b110 @
1%
10
#1710000
0%
00
#1715000
b110 @
b110 D
b110 M
1%
10
#1720000
0%
00
#1725000
b110 M
b110 D
b110 @
1%
10
#1730000
0%
00
#1735000
b110 @
b110 D
b110 M
1%
10
#1740000
0%
00
#1745000
b110 M
b110 D
b110 @
1%
10
#1750000
0%
00
#1755000
b110 @
b110 D
b110 M
1%
10
#1760000
0%
00
#1765000
b110 M
b110 D
b110 @
1%
10
#1770000
0%
00
#1775000
b110 @
b110 D
b110 M
1%
10
#1780000
0%
00
#1785000
b110 M
b110 D
b110 @
1%
10
#1790000
0%
00
#1795000
b110 @
b110 D
b110 M
1%
10
#1800000
0%
00
#1805000
b110 M
b110 D
b110 @
1%
10
#1810000
0%
00
#1815000
b110 @
b110 D
b110 M
1%
10
#1820000
0%
00
#1825000
b110 M
b110 D
b110 @
1%
10
#1830000
0%
00
#1835000
b110 @
b110 D
b110 M
1%
10
#1840000
0%
00
#1845000
b110 M
b110 D
b110 @
1%
10
#1850000
0%
00
#1855000
b110 @
b110 D
b110 M
1%
10
#1860000
0%
00
#1865000
b110 M
b110 D
b110 @
1%
10
#1870000
0%
00
#1875000
b110 @
b110 D
b110 M
1%
10
#1880000
0%
00
#1885000
b110 M
b110 D
b110 @
1%
10
#1890000
0%
00
#1895000
b110 @
b110 D
b110 M
1%
10
#1900000
0%
00
#1905000
b110 M
b110 D
b110 @
1%
10
#1910000
0%
00
#1915000
b110 @
b110 D
b110 M
1%
10
#1920000
0%
00
#1925000
b110 M
b110 D
b110 @
1%
10
#1930000
0%
00
#1935000
b110 @
b110 D
b110 M
1%
10
#1940000
0%
00
#1945000
b110 M
b110 D
b110 @
1%
10
#1950000
0%
00
#1955000
b110 @
b110 D
b110 M
1%
10
#1960000
0%
00
#1965000
b110 M
b110 D
b110 @
1%
10
#1970000
0%
00
#1975000
b110 @
b110 D
b110 M
1%
10
#1980000
0%
00
#1985000
b110 M
b110 D
b110 @
1%
10
#1990000
0%
00
#1995000
b110 @
b110 D
b110 M
1%
10
#2000000
0%
00
#2005000
b110 M
b110 D
b110 @
1%
10
